Analytics and ML Projects: Behind Scenes: Prediction of the severity of car accidents
…
cars <- read_csv("small_accidents.csv", col_types = cols(.default = col_character())) %>%
  type_convert()

cars %>%
  group_by(City) %>%
  summarize(Count=n()) %>%
  arrange(desc(Count)) %>%
  head(1000)

# A tibble: 1,000 x 2
   City        Count
   <chr>       <int>
 1 Houston      9612
 2 Los Angeles  7771
 3 Charlotte    7435
 4 Dallas       6545
 5 Austin       5832
 6 Miami        5207
 7 Raleigh      4420
 8 Atlanta      3760
 9 Orlando      3300
10 Sacramento   3150
#  with 990 more rows
…
traffic_final <-
  traffic3 %>%
  add_n_miss() %>%
  filter(n_miss_all == 0) %>%
  select(-n_miss_all) %>%
  select(-Count)

#write.csv(traffic_final, "traffic_final.csv", row.names = FALSE)

read_csv("traffic_final.csv")

# A tibble: 98,088 x 29
   Severity  Year Month Day   Hour   Wday Duration Start_Lat Start_Lng
      <dbl> <dbl> <chr> <chr> <chr> <dbl>    <dbl>     <dbl>     <dbl>
 1        2  2016 12    07    23        4     44.4      38.6     -121.
 2        2  2016 12    08    09        5     29.6      38.4     -123.
 3        2  2016 12    23    09        6     29.7      38.3     -123.
 4        2  2017 01    02    19        2     29.7      39.3     -121.
 5        2  2017 01    22    15        1     44.6      38.1     -122.
 6        2  2017 01    23    20        2     29.6      37.2     -122.
 7        2  2017 01    23    22        2     29.8      37.4     -122.
 8        2  2017 01    25    06        4     44.6      38.0     -122.
 9        2  2016 11    30    08        4     70.0      38.7     -122.
10        2  2016 06    21    16        3     60        34.4     -119.
#  with 98,078 more rows, and 20 more variables: Distance <dbl>,
#   Side <chr>, City <chr>, State <chr>, Temperature <dbl>,
#   Wind_Chill <dbl>, Humidity <dbl>, Pressure <dbl>,
#   Visibility <dbl>, Wind_Speed <dbl>, Precipitation <dbl>,
#   Weather_Condition <chr>, Crossing <lgl>, Junction <lgl>,
#   Traffic_Signal <lgl>, Sunrise_Sunset <chr>, Civil_Twilight <chr>,
#   Nautical_Twilight <chr>, Astronomical_Twilight <chr>,
#   Status <chr>
…
lasso_recipe %>%
  prep() %>%
  juice()

# A tibble: 49,044 x 64
    Month    Hour    Wday Duration Start_Lat Start_Lng Distance
    <dbl>   <dbl>   <dbl>    <dbl>     <dbl>     <dbl>    <dbl>
 1  1.21   1.86   -0.0289  -0.0345     0.715     -1.31   -0.252
 2  1.21  -0.527   0.536   -0.0399     0.682     -1.38   -0.252
 3  1.21  -0.527   1.10    -0.0399     0.665     -1.38   -0.260
 4 -1.93   0.495  -1.72    -0.0344     0.621     -1.36   -0.252
 5 -1.93   1.69   -1.16    -0.0398     0.464     -1.34   -0.252
 6 -0.504 -0.527  -1.16    -0.0366    -0.161     -1.15   -0.260
 7 -0.219 -1.04    1.67    -0.0342    -0.155     -1.15   -0.260
 8 -0.219 -1.89   -0.594   -0.0287    -0.141     -1.16   -0.260
 9 -0.219 -0.0158 -0.0289  -0.0368    -0.178     -1.17   -0.260
10 -0.219  1.35   -0.0289  -0.0398    -0.179     -1.16   -0.260
#  with 49,034 more rows, and 57 more variables: Temperature <dbl>,
#   Wind_Chill <dbl>, Humidity <dbl>, Pressure <dbl>,
#   Visibility <dbl>, Wind_Speed <dbl>, Precipitation <dbl>,
#   Status <fct>, Side_R <dbl>, City_Dallas <dbl>,
#   City_Houston <dbl>, City_Los.Angeles <dbl>, City_Miami <dbl>,
#   City_Other <dbl>, Weather_Condition_Cloudy <dbl>,
#   Weather_Condition_Cloudy...Windy <dbl>,
#   Weather_Condition_Drizzle <dbl>, Weather_Condition_Fair <dbl>,
#   Weather_Condition_Fair...Windy <dbl>,
…
# A tibble: 1 x 2
   penalty .config              
     <dbl> <chr>                
1 0.000464 Preprocessor1_Model07

final_lasso <- lasso_wf %>%
  finalize_workflow(best_param) %>%
  fit(data = traffic_training)

final_lasso %>%
  pull_workflow_fit() %>%
  tidy()

# A tibble: 64 x 3
   term         estimate  penalty
   <chr>           <dbl>    <dbl>
 1 (Intercept) -3.56     0.000464
 2 Month       -0.353    0.000464
 3 Hour         0.0587   0.000464
 4 Wday        -0.000337 0.000464
 5 Duration     0        0.000464
 6 Start_Lat    0.135    0.000464
 7 Start_Lng    0.462    0.000464
 8 Distance     0.0946   0.000464
 9 Temperature  0.224    0.000464
10 Wind_Chill  -0.0209   0.000464
#  with 54 more rows
…
#classification rf
set.seed(494)

rf_recipe <-
  recipe(Status ~ .,
         data = traffic_training) %>%
  step_mutate_at(all_numeric(),
                 fn = ~as.numeric(.))

rf_recipe %>%
  prep() %>%
  juice()

# A tibble: 49,044 x 25
   Month  Hour  Wday Duration Start_Lat Start_Lng Distance Side  City 
   <dbl> <dbl> <dbl>    <dbl>     <dbl>     <dbl>    <dbl> <fct> <fct>
 1    12    24     4     44.4      38.6     -121.     0.01 R     Sacr
 2    12    10     5     29.6      38.4     -123.     0.01 R     Sant
 3    12    10     6     29.7      38.3     -123.     0    L     Seba
 4     1    16     1     44.6      38.1     -122.     0.01 R     Peta
 5     1    23     2     29.8      37.4     -122.     0.01 L     Sant
 6     6    10     2     38.6      34.4     -119.     0    R     Newh
 7     7     7     7     45        34.4     -119.     0    R     Vale
 8     7     2     3     60        34.5     -119.     0    L     Cast
 9     7    13     4     38.1      34.3     -119.     0    R     Simi
10     7    21     4     30        34.3     -119.     0    R     Simi
#  with 49,034 more rows, and 16 more variables: Temperature <dbl>,
#   Wind_Chill <dbl>, Humidity <dbl>, Pressure <dbl>,
#   Visibility <dbl>, Wind_Speed <dbl>, Precipitation <dbl>,
#   Weather_Condition <fct>, Crossing <fct>, Junction <fct>,
#   Traffic_Signal <fct>, Sunrise_Sunset <fct>, Civil_Twilight <fct>,
#   Nautical_Twilight <fct>, Astronomical_Twilight <fct>,
#   Status <fct>
…
